An Analysis of Toronto Transit Commission (TTC) Bus Delay Data 2020
…
Adding Extra Info About Routes

I made another csv file containing the names of Routes, the service type and the travel direction. This information was taken from the TTC websites description of Routes and Schedules. I joined this additional information with the TTCs dataset. Here is what the additional information looks like.

## 
## -- Column specification --------------------------------------------------------
## cols(
##   Route = col_double(),
##   Name = col_character(),
##   Service_Type = col_character(),
##   Route_Direction = col_character()
## )

## # A tibble: 195 x 4
##    Route Name          Service_Type Route_Direction
##    <dbl> <chr>         <chr>        <chr>          
##  1     7 Bathurst      Regular      North/South    
##  2     8 Broadview     Regular      North/South    
##  3     9 Bellamy       Regular      North/South    
##  4    10 Van Horne     Limited      East/West      
##  5    11 Bayview       Regular      North/South    
##  6    12 Kingston Road Regular      East/West      
##  7    13 Avenue Road   Regular      North/South    
##  8    14 Glencairn     Regular      East/West      
##  9    15 Evans         Regular      East/West      
## 10    16 McCowan       Regular      North/South    
## # ... with 185 more rows

Analysis

When riders are judging which routes are more likely to have delays, they may find it useful to consider the number of delays, the average delay time, and the median delay time. The average delay time may be more easily skewed by outliers or errors in data entry, so the median delay time is also shown. Moreover, some riders may be more willing to risk more minor delays rather than fewer large delays, while other individuals may not. Discretion is advised.

Bus Routes with the Most Delays

## # A tibble: 182 x 6
##    Route Name   `Number of Delay~ `Median Delay T~ `Average Delay ~ Service_Type
##    <dbl> <chr>              <int>            <dbl>            <dbl> <chr>       
##  1    52 Lawre~              1183               15             24.6 Regular     
##  2    32 Eglin~              1177               10             12.8 Regular     
##  3   133 Neils~              1128               11             11.6 Regular     
##  4    36 Finch~              1027                6             10.9 Regular     
##  5    54 Lawre~               845               13             17.9 Regular     
##  6    34 Eglin~               730               10             40.8 Regular     
##  7    39 Finch~               717               10             14.0 Regular     
##  8    35 Jane                 687                9             15.0 Regular     
##  9    95 York ~               663               12             15.2 Regular     
## 10    29 Duffe~               645                8             17.2 Regular     
## # ... with 172 more rows
…
Incidents Causing Longest Delays on Average: Diversions, Non-TTC Collisions

The median delay time for Regular buses was significantly higher than that of Express buses.

The median delay time for East/West buses was significantly higher than that of North/South buses.

The median delay time for Non-TTC Collisions is significantly higher than that of TTC Collisions.

Work In Progress and Further Avenues for Exploration

Locations with the Most Delays

I have fixed inconsistencies in the spellings of many high-traffic Locations, however there are likely more that still need to be fixed. In particular, the Pearson Airport, Centennial College Loop, and U of T Scarborough locations still contain some inconsistencies. Premature experimentation suggests that Scarborough Centre Station and Kennedy Station likely experienced the most delays in 2020. So far, it seems like Subway Stations and Garages experience the highest number of delays. This would make sense since many mechanical repairs, cleaning are done by employees at these locations.

## # A tibble: 8,091 x 4
##    Location             `Number of Delays` `Average Delay Ti~ `Median Delay Tim~
##    <chr>                             <int>              <dbl>              <dbl>
##  1 SCARBOROUGH CENTRE ~               1309               11.1                 11
##  2 KENNEDY STATION                    1202               11.2                 10
##  3 EGLINTON STATION                    735               13.8                 12
##  4 WARDEN STATION                      734               14.0                 12
##  5 FINCH STATION                       696               11.1                  9
##  6 KIPLING STATION                     629               13.3                 11
##  7 PIONEER VILLAGE STA~                583               10.1                  9
##  8 YORK MILLS STATION                  548               16.4                 14
##  9 LAWRENCE WEST STATI~                510               16.2                 15
## 10 WILSON STATION                      371               14.5                 10
## # ... with 8,081 more rows
…
